{ "js":{
        "jquery" : {  "cdn": "https://ajax.googleapis.com/ajax/libs/jquery/2.1.4/jquery.min.js",
                      "version":"2.1.4"},
        "openlayers" : {  "cdn": "https://cdnjs.cloudflare.com/ajax/libs/ol3/3.11.2/ol.min.js",
                          "version":"3.11.2",
                          "debug":true},
        "googlemaps" : {  "cdn": "http://maps.google.com/maps/api/js?v=3&sensor=false",
                          "version":"3.10.1",
                          "alternative": false},
        "bootstrap" : {   "cdn": "https://maxcdn.bootstrapcdn.com/bootstrap/3.3.6/js/bootstrap.min.js",
                          "version":"3.3.6",
                          "sha": "sha256-KXn5puMvxCw+dAYznun+drMdG1IFl3agK0p/pqT9KAo= sha512-2e8qq0ETcfWRI4HJBzQiA3UoyFk6tbNyG+qSaIBZLyW9Xf3sWZHN/lxe9fTh1U45DpPf07yj94KsUHHWe4Yk1A==",
                          "debug": true
                      },
        "summernote" : {     "cdn":"http://cdnjs.cloudflare.com/ajax/libs/summernote/0.7.3/summernote.js" }
    },
  "css":{
        "openlayers" : {    "cdn": "https://cdnjs.cloudflare.com/ajax/libs/ol3/3.11.2/ol.min.css",
                            "version":"3.11.2",
                            "alternative": "openlayers/ol.css"},
        "bootstrap" : {     "cdn":"https://maxcdn.bootstrapcdn.com/bootstrap/3.3.4/css/bootstrap.min.css" },
        "summernote" : {     "cdn":"http://cdnjs.cloudflare.com/ajax/libs/summernote/0.7.3/summernote.css" }
    }
}
